<?xml version="1.0" encoding="UTF-8"?>
<svg width="120px" height="120px" viewBox="0 0 120 120" version="1.1" xmlns="http://www.w3.org/2000/svg" xmlns:xlink="http://www.w3.org/1999/xlink">
    <!-- Generator: Sketch 55.1 (78136) - https://sketchapp.com -->
    <title>Betaljänst</title>
    <desc>Created with Sketch.</desc>
    
    <g id="Group-8" >
    <defs transform="matrix(1.3,0,0,1.3,-19.7,-24.1)">
        <polygon id="path-1" points="16.4,23.8 136.4,23.8 136.4,82.5 17.9,139.6"></polygon>
    </defs>
                    <g id="Group-3" transform="matrix(1.3,0,0,1.3,-14.2,-10.7)">
                        <mask id="mask-2" fill="white">
                            <use transform="matrix(1,0,0,1,-17.6,-23.5)" xlink:href="#path-1"></use>
                        </mask>
                        <g id="Clip-2"></g>
                        <path d="M 84.8 73.2 L 75.9 73.2 C 74.8 73.2 74 72.4 74 71.3 C 74 70.3 74.8 69.5 75.9 69.5 L 84.8 69.5 C 88.1 69.5 91.4 68 93.7 65.5 C 97.2 62.3 99 58.1 99 53.6 C 99 44.8 91.9 37.7 83.2 37.7 C 81.6 37.7 80 37.9 78.4 38.5 C 77.8 38.6 77.3 38.6 76.8 38.2 C 76.3 37.9 76 37.4 75.9 36.8 C 74.9 26.2 66.1 18.1 55.4 18.1 C 44 18.1 34.7 27.5 34.7 38.9 C 34.7 40.3 34.9 41.6 35.2 43 C 35.3 43.5 35.1 44.1 34.8 44.5 C 34.4 45 33.9 45.2 33.3 45.2 L 29.1 45.2 C 22.5 45.2 17.1 50.7 17.1 57.4 C 17.1 64 22.5 69.5 29.1 69.5 L 40.2 69.5 C 41.3 69.5 42.1 70.3 42.1 71.3 C 42.1 72.4 41.3 73.2 40.2 73.2 L 29.1 73.2 C 20.4 73.2 13.3 66.1 13.3 57.4 C 13.3 48.6 20.4 41.5 29.1 41.5 L 31.1 41.5 C 31 40.6 31 39.8 31 38.9 C 31 25.4 41.9 14.4 55.4 14.4 C 67.3 14.4 77.2 22.8 79.4 34.3 C 80.6 34 81.9 33.9 83.2 33.9 C 94 33.9 102.8 42.7 102.8 53.6 C 102.8 59.1 100.4 64.4 96.3 68.1 C 93.5 71.3 89.2 73.2 84.8 73.2" id="Fill-1" fill="#83868b" mask="url(#mask-2)"></path>
                    </g>
                    <path transform="matrix(1.3,0,0,1.3,-15.1,-15.4)" d="M 80.4 62.5 C 80.1 62.5 79.7 62.4 79.3 62.2 L 58.8 47.1 L 38.2 62.2 C 37.3 62.8 36.1 62.6 35.5 61.7 C 34.9 60.9 35.1 59.7 36 59.1 L 57.7 43.2 C 58.3 42.7 59.2 42.7 59.9 43.2 L 81.5 59.1 C 82.4 59.7 82.6 60.9 82 61.7 C 81.6 62.2 81 62.5 80.4 62.5" id="Fill-4" fill="#83868b"></path>
                    <path transform="matrix(1.3,0,0,1.3,-15.1,-21.6)" d="M 58.8 99.6 C 57.7 99.6 56.9 98.7 56.9 97.7 L 56.9 49.3 C 56.9 48.3 57.7 47.5 58.8 47.5 C 59.8 47.5 60.6 48.3 60.6 49.3 L 60.6 97.7 C 60.6 98.7 59.8 99.6 58.8 99.6" id="Fill-6" fill="#83868b"></path>
                </g>
    <!-- <g id="Sergel-Online" stroke="none" stroke-width="1" fill="none" fill-rule="evenodd">
        <g id="U1-Landing-page" transform="translate(-621.000000, -221.000000)">
            <g id="Betaljänst" transform="translate(621.000000, 221.000000)">
                <path d="M98.6391304,197.282609 C44.1608696,197.282609 0,153.117391 0,98.6434783 C0,44.1608696 44.1608696,0 98.6391304,0 C153.117391,0 197.282609,44.1608696 197.282609,98.6434783 C197.282609,153.117391 153.117391,197.282609 98.6391304,197.282609" id="Fill-1" fill="#FFFFFF"></path>
                
            </g>
        </g>
    </g> -->
</svg>